module temp

go 1.19

require (
	github.com/golang/protobuf v1.5.2
	github.com/google/uuid v1.1.2
	github.com/spf13/cast v1.5.0
	go.mongodb.org/mongo-driver v1.11.0
	go.uber.org/zap v1.23.0
	google.golang.org/grpc v1.51.0
)

require (
	github.com/golang/snappy v0.0.1 // indirect
	github.com/klauspost/compress v1.13.6 // indirect
	github.com/montanaflynn/stats v0.0.0-20171201202039-1bf9dbcd8cbe // indirect
	github.com/pkg/errors v0.9.1 // indirect
	github.com/xdg-go/pbkdf2 v1.0.0 // indirect
	github.com/xdg-go/scram v1.1.1 // indirect
	github.com/xdg-go/stringprep v1.0.3 // indirect
	github.com/youmark/pkcs8 v0.0.0-20181117223130-1be2e3e5546d // indirect
	go.uber.org/atomic v1.7.0 // indirect
	go.uber.org/multierr v1.6.0 // indirect
	golang.org/x/crypto v0.0.0-20220622213112-05595931fe9d // indirect
	golang.org/x/net v0.0.0-20220722155237-a158d28d115b // indirect
	golang.org/x/sync v0.0.0-20210220032951-036812b2e83c // indirect
	golang.org/x/sys v0.0.0-20220722155257-8c9f86f7a55f // indirect
	golang.org/x/text v0.4.0 // indirect
	google.golang.org/genproto v0.0.0-20200526211855-cb27e3aa2013 // indirect
	google.golang.org/protobuf v1.27.1 // indirect
)
